{
    "_etag": "641cf3592e962075b6b368ea6252b421",
    "_items": [
       {
          "userID": "1ed02a92-60b9-6f0c-ba60-fb063d5d9990",
          "name": "spamandrice | YGGε",
          "rank": "Challenger",
          "tier": 0,
          "topRank": 1,
          "vstar": 2562,
          "avatar": "patrick23_hat;temple_gate_lunar23",
          "_etag": "184b50e2fb66b86ff82407476a36c388"
       },
       {
          "userID": "1ee879eb-54e3-605c-84d5-3701e19ee21a",
          "name": "PotatoChips | Guildless Gamers",
          "rank": "Challenger",
          "tier": 0,
          "topRank": 2,
          "vstar": 2556,
          "avatar": "cute_ena;s6_lotus_petal_05",
          "_etag": "184b50e2fb66b86ff82407476a36c388"
       },
       {
          "userID": "1ed4f18c-ecc6-6bc7-b208-f0bd6fa711a4",
          "name": "NMZ | Chosen Ones",
          "rank": "Challenger",
          "tier": 0,
          "topRank": 3,
          "vstar": 2556,
          "avatar": "cute_ena;s6_lotus_petal_01",
          "_etag": "184b50e2fb66b86ff82407476a36c388"
       },
       {
          "userID": "1edea352-ecad-64c6-bbce-5f84155fff60",
          "name": "Troxx|PITIFU",
          "rank": "Challenger",
          "tier": 0,
          "topRank": 4,
          "vstar": 2538,
          "avatar": "s5_top1k;s6_lotus_petal_02",
          "_etag": "184b50e2fb66b86ff82407476a36c388"
       },
       {
          "userID": "1ecc19a3-bbb8-6d9c-8fae-64a00168e792",
          "name": "Ralo | SURA",
          "rank": "Challenger",
          "tier": 0,
          "topRank": 5,
          "vstar": 2534,
          "avatar": "easter_eggs;fluffy_hooves",
          "_etag": "184b50e2fb66b86ff82407476a36c388"
       },
       {
          "userID": "1ec9eb7e-3daa-6fea-a60c-23ee421975a6",
          "name": "Kousei YGG",
          "rank": "Challenger",
          "tier": 0,
          "topRank": 6,
          "vstar": 2530,
          "avatar": "cute_ena;gold_05_s3",
          "_etag": "184b50e2fb66b86ff82407476a36c388"
       },
       {
          "userID": "1ec9eb7e-6abe-66ca-a60c-9eee49bce2ef",
          "name": "MeatValue | SURA",
          "rank": "Challenger",
          "tier": 0,
          "topRank": 7,
          "vstar": 2528,
          "avatar": "0;s5_lotus_petal_05",
          "_etag": "184b50e2fb66b86ff82407476a36c388"
       },
       {
          "userID": "1ecad86f-e474-634a-b10f-438c79d70755",
          "name": "Enrico | YGG",
          "rank": "Challenger",
          "tier": 0,
          "topRank": 8,
          "vstar": 2516,
          "avatar": "genkai_1;gold_03_s3",
          "_etag": "184b50e2fb66b86ff82407476a36c388"
       },
       {
          "userID": "1ec9eb6f-7df0-6ed2-a60c-cc7b88a95375",
          "name": "PROFE SERGIO",
          "rank": "Challenger",
          "tier": 0,
          "topRank": 9,
          "vstar": 2512,
          "avatar": "good_boy;triumphant_paws",
          "_etag": "184b50e2fb66b86ff82407476a36c388"
       },
       {
          "userID": "1ee23923-8b10-642c-92af-e43f58f2de78",
          "name": "Mitchybishi | Js",
          "rank": "Challenger",
          "tier": 0,
          "topRank": 10,
          "vstar": 2502,
          "avatar": "0;0",
          "_etag": "184b50e2fb66b86ff82407476a36c388"
       },
       {
          "userID": "1ec9eb6f-4a3d-6da9-a60c-a1b7aa080232",
          "name": "Draaaveen",
          "rank": "Challenger",
          "tier": 0,
          "topRank": 11,
          "vstar": 2489,
          "avatar": "s3_top20k;s5_lotus_petal_01",
          "_etag": "184b50e2fb66b86ff82407476a36c388"
       },
       {
          "userID": "1ec9eb6f-5bd2-60c2-a60c-f2ffa7fde17f",
          "name": "Wil | SOCIALAPE",
          "rank": "Challenger",
          "tier": 0,
          "topRank": 12,
          "vstar": 2489,
          "avatar": "7;s6_lotus_petal",
          "_etag": "184b50e2fb66b86ff82407476a36c388"
       },
       {
          "userID": "1ec9eb6f-8c7f-62ef-a60c-fa7bfc701867",
          "name": "Howler",
          "rank": "Challenger",
          "tier": 0,
          "topRank": 13,
          "vstar": 2484,
          "avatar": "xmas_tripp_2023;ena_postseason_6",
          "_etag": "184b50e2fb66b86ff82407476a36c388"
       },
       {
          "userID": "1ec9eb7e-6e7d-6b11-a60c-a3ca02f388a4",
          "name": "METAT8 | siomai",
          "rank": "Challenger",
          "tier": 0,
          "topRank": 14,
          "vstar": 2483,
          "avatar": "s6_mooncake;s5_goldenwood",
          "_etag": "184b50e2fb66b86ff82407476a36c388"
       },
       {
          "userID": "1ecf3aa1-f70d-6c29-9553-c45520766968",
          "name": "axp farmer",
          "rank": "Challenger",
          "tier": 0,
          "topRank": 15,
          "vstar": 2478,
          "avatar": "cute_puffy;triumphant_paws",
          "_etag": "184b50e2fb66b86ff82407476a36c388"
       },
       {
          "userID": "1ec9eb6f-72c0-66af-a60c-d8152ad8ef63",
          "name": "Bebé Vampi| SFG",
          "rank": "Challenger",
          "tier": 0,
          "topRank": 16,
          "vstar": 2478,
          "avatar": "s6_top1k;s6_lotus_petal",
          "_etag": "184b50e2fb66b86ff82407476a36c388"
       },
       {
          "userID": "1ec9eb7e-393f-6b73-a60c-86f6f40b3e19",
          "name": "gibix_ve",
          "rank": "Challenger",
          "tier": 0,
          "topRank": 17,
          "vstar": 2473,
          "avatar": "xmas_pomodoro_2023;s6_lotus_petal",
          "_etag": "184b50e2fb66b86ff82407476a36c388"
       },
       {
          "userID": "1ec9eb6f-8326-6f48-a60c-da2745238d9b",
          "name": "AGmuroi",
          "rank": "Challenger",
          "tier": 0,
          "topRank": 18,
          "vstar": 2472,
          "avatar": "1;0",
          "_etag": "184b50e2fb66b86ff82407476a36c388"
       },
       {
          "userID": "1ec9eb7e-36e9-6da2-a60c-ed0a11570bd1",
          "name": "qqqq",
          "rank": "Challenger",
          "tier": 0,
          "topRank": 19,
          "vstar": 2471,
          "avatar": "cute_puffy;gold_s4",
          "_etag": "184b50e2fb66b86ff82407476a36c388"
       },
       {
          "userID": "1ec9eb6f-5d36-6e0a-a60c-094c21ca95ec",
          "name": "Beastly",
          "rank": "Challenger",
          "tier": 0,
          "topRank": 20,
          "vstar": 2471,
          "avatar": "8;s6_lotus_petal",
          "_etag": "184b50e2fb66b86ff82407476a36c388"
       }
    ],
    "_metadata": {
       "limit": 20,
       "offset": 0,
       "total": 80490,
       "hasNext": true
    }
 }